%YAML 1.1
%TAG !u! tag:unity3d.com,2011:
--- !u!114 &-4299505253033396875
MonoBehaviour:
  m_ObjectHideFlags: 0
  m_CorrespondingSourceObject: {fileID: 0}
  m_PrefabInstance: {fileID: 0}
  m_PrefabAsset: {fileID: 0}
  m_GameObject: {fileID: 0}
  m_Enabled: 1
  m_EditorHideFlags: 0
  m_Script: {fileID: 11500000, guid: 9f6c631d933489d4ca7328a2a5983e10, type: 3}
  m_Name: hitting
  m_EditorClassIdentifier: 
  DatabaseName: Game
  SoundName: hitting
  IgnoreListenerPause: 1
  Volume:
    MinValue: -0
    MaxValue: 0
  Pitch:
    MinValue: 2.7
    MaxValue: 11.9
  SpatialBlend: 0
  Loop: 0
  Mode: 0
  ResetSequenceAfterInactiveTime: 0
  SequenceResetTime: 5
  Sounds:
  - AudioClip: {fileID: 8300000, guid: 0d7231fa54e016d43993a598e286d09f, type: 3}
    Weight: 1
--- !u!114 &11400000
MonoBehaviour:
  m_ObjectHideFlags: 0
  m_CorrespondingSourceObject: {fileID: 0}
  m_PrefabInstance: {fileID: 0}
  m_PrefabAsset: {fileID: 0}
  m_GameObject: {fileID: 0}
  m_Enabled: 1
  m_EditorHideFlags: 0
  m_Script: {fileID: 11500000, guid: 4b400ee936d64d0e93e3892c7c321e09, type: 3}
  m_Name: SoundDatabase_Game
  m_EditorClassIdentifier: 
  DatabaseName: Game
  OutputAudioMixerGroup: {fileID: 24300002, guid: bc155dfdccec1be4780029a8bd542de5,
    type: 2}
  SoundNames:
  - No Sound
  - hitting
  - No Sound
  Database:
  - {fileID: 8517640832895511264}
  - {fileID: -4299505253033396875}
--- !u!114 &8517640832895511264
MonoBehaviour:
  m_ObjectHideFlags: 0
  m_CorrespondingSourceObject: {fileID: 0}
  m_PrefabInstance: {fileID: 0}
  m_PrefabAsset: {fileID: 0}
  m_GameObject: {fileID: 0}
  m_Enabled: 1
  m_EditorHideFlags: 0
  m_Script: {fileID: 11500000, guid: 9f6c631d933489d4ca7328a2a5983e10, type: 3}
  m_Name: No Sound
  m_EditorClassIdentifier: 
  DatabaseName: Game
  SoundName: No Sound
  IgnoreListenerPause: 1
  Volume:
    MinValue: 0
    MaxValue: 0
  Pitch:
    MinValue: 0
    MaxValue: 0
  SpatialBlend: 0
  Loop: 0
  Mode: 0
  ResetSequenceAfterInactiveTime: 0
  SequenceResetTime: 5
  Sounds: []
