%YAML 1.1
%TAG !u! tag:unity3d.com,2011:
--- !u!114 &11400000
MonoBehaviour:
  m_ObjectHideFlags: 0
  m_CorrespondingSourceObject: {fileID: 0}
  m_PrefabInstance: {fileID: 0}
  m_PrefabAsset: {fileID: 0}
  m_GameObject: {fileID: 0}
  m_Enabled: 1
  m_EditorHideFlags: 0
  m_Script: {fileID: 11500000, guid: 17215f689fb19554ab6b81c2308113df, type: 3}
  m_Name: UIPopupLink_PopupSystem
  m_EditorClassIdentifier: 
  PopupName: PopupSystem
  Prefab: {fileID: 5154275355754665388, guid: 7bec0a2ed5317874789d09faf2642cb3, type: 3}
