%YAML 1.1
%TAG !u! tag:unity3d.com,2011:
--- !u!114 &11400000
MonoBehaviour:
  m_ObjectHideFlags: 0
  m_CorrespondingSourceObject: {fileID: 0}
  m_PrefabInstance: {fileID: 0}
  m_PrefabAsset: {fileID: 0}
  m_GameObject: {fileID: 0}
  m_Enabled: 1
  m_EditorHideFlags: 0
  m_Script: {fileID: 11500000, guid: 889794c411054f7ca8e6fbdc6728c846, type: 3}
  m_Name: _UIDrawerDatabase
  m_EditorClassIdentifier: 
  DatabaseType: 3
  CategoryNames:
  - Custom
  - General
  Categories:
  - {fileID: 11400000, guid: add1e6e7bcce0f249beb58c4adf358b4, type: 2}
